sim/wav.vcd
$date
	Tue Jul 29 10:40:14 2025
$end
$version
	Icarus Verilog
$end
$timescale
	1ps
$end
$scope module test $end
$var reg 1 ! clk $end
$var reg 1 " reset $end
$scope module dut $end
$var wire 32 # MemOut [31:0] $end
$var wire 32 $ PCOut [31:0] $end
$var wire 1 % branch_taken $end
$var wire 1 ! clock $end
$var wire 1 & is_jr $end
$var wire 1 " reset $end
$var wire 1 ' zero_flag $end
$var wire 5 ( write_reg [4:0] $end
$var wire 32 ) write_data [31:0] $end
$var wire 32 * sign_ext_out [31:0] $end
$var wire 32 + read_data2 [31:0] $end
$var wire 32 , read_data1 [31:0] $end
$var wire 32 - pc_plus4 [31:0] $end
$var wire 32 . nextPC [31:0] $end
$var wire 32 / instruction [31:0] $end
$var wire 32 0 dmem_out [31:0] $end
$var wire 32 1 branch_target [31:0] $end
$var wire 32 2 branch_offset [31:0] $end
$var wire 32 3 alu_in2 [31:0] $end
$var wire 4 4 alu_control [3:0] $end
$var wire 1 5 RegWrite $end
$var wire 1 6 RegDst $end
$var wire 32 7 PC [31:0] $end
$var wire 1 8 MemtoReg $end
$var wire 1 9 MemWrite $end
$var wire 1 : MemRead $end
$var wire 1 ; LuiEn $end
$var wire 1 < Jump $end
$var wire 1 = Jr $end
$var wire 1 > JalEn $end
$var wire 1 ? ExtOp $end
$var wire 1 @ Branch $end
$var wire 1 A ALUSrc $end
$var wire 32 B ALUResultOut [31:0] $end
$var wire 2 C ALUOp [1:0] $end
$scope module alu $end
$var wire 32 D In2 [31:0] $end
$var wire 1 ' Zero_Flag $end
$var wire 4 E OP [3:0] $end
$var wire 32 F In1 [31:0] $end
$var reg 32 G result [31:0] $end
$upscope $end
$scope module ctrl $end
$var wire 6 H funct [5:0] $end
$var wire 6 I opcode [5:0] $end
$var reg 2 J ALUOp [1:0] $end
$var reg 1 A ALUSrc $end
$var reg 1 @ Branch $end
$var reg 1 ? ExtOp $end
$var reg 1 > JalEn $end
$var reg 1 = Jr $end
$var reg 1 < Jump $end
$var reg 1 ; LuiEn $end
$var reg 1 : MemRead $end
$var reg 1 9 MemWrite $end
$var reg 1 8 MemtoReg $end
$var reg 1 6 RegDst $end
$var reg 1 5 RegWrite $end
$upscope $end
$scope module dmem $end
$var wire 1 : MemRead $end
$var wire 1 9 MemWrite $end
$var wire 32 K address [31:0] $end
$var wire 1 ! clock $end
$var wire 32 L WriteData [31:0] $end
$var wire 32 M ReadData [31:0] $end
$upscope $end
$scope module ext $end
$var wire 1 ? ExtOp $end
$var wire 16 N imm [15:0] $end
$var reg 32 O ext_out [31:0] $end
$upscope $end
$scope module imem $end
$var wire 32 P i_out [31:0] $end
$var wire 32 Q address [31:0] $end
$upscope $end
$scope module pc $end
$var wire 1 ! clock $end
$var wire 32 R nextPC [31:0] $end
$var wire 1 " reset $end
$var reg 32 S PC [31:0] $end
$upscope $end
$scope module regs $end
$var wire 5 T ReadAddr1 [4:0] $end
$var wire 5 U ReadAddr2 [4:0] $end
$var wire 1 5 RegWrite $end
$var wire 5 V WriteAddr [4:0] $end
$var wire 32 W WriteData [31:0] $end
$var wire 1 ! clock $end
$var wire 1 " reset $end
$var wire 32 X ReadData2 [31:0] $end
$var wire 32 Y ReadData1 [31:0] $end
$scope begin $ivl_for_loop0 $end
$var integer 32 Z i [31:0] $end
$upscope $end
$upscope $end
$scope module uctrl $end
$var wire 2 [ ALUOp [1:0] $end
$var wire 6 \ funct [5:0] $end
$var reg 4 ] OP_ula [3:0] $end
$upscope $end
$upscope $end
$upscope $end
$enddefinitions $end
#0
$dumpvars
b0 ]
b1111 \
b0 [
b100000 Z
b0 Y
b0 X
b11110000000000000000 W
b1 V
b1 U
b0 T
b0 S
b100 R
b0 Q
b111100000000010000000000001111 P
b1111 O
b1111 N
bz M
b0 L
b1111 K
b0 J
b1111 I
bz H
b1111 G
b0 F
b0 E
b1111 D
b0 C
b1111 B
1A
0@
1?
0>
0=
0<
1;
0:
09
08
b0 7
06
15
b0 4
b1111 3
b111100 2
b1000000 1
bz 0
b111100000000010000000000001111 /
b100 .
b100 -
b0 ,
b0 +
b1111 *
b11110000000000000000 )
b1 (
0'
0&
0%
b0 $
bz #
1"
0!
$end
#5000
b100000 Z
1!
#10000
0!
0"
#15000
b11111010000000000000 )
b11111010000000000000 W
b101000000000000000 2
b1010000000000000 3
b1010000000000000 D
b11111010000000000000 B
b11111010000000000000 G
b11111010000000000000 K
b11 C
b11 J
b11 [
0?
0;
15
1A
b1010000000000000 *
b1010000000000000 O
b11110000000000000000 ,
b11110000000000000000 F
b11110000000000000000 Y
b1000 .
b1000 R
b1101 I
b0 \
b1010000000000000 N
b1 T
b110100001000011010000000000000 /
b110100001000011010000000000000 P
b11110000000000000000 +
b11110000000000000000 L
b11110000000000000000 X
b101000000000001000 1
b1000 -
b100 $
b100 7
b100 Q
b100 S
1!
#20000
0!
#25000
b11111010000000000000 )
b11111010000000000000 W
b11001 (
b11001 V
b11111111111111110010000010000000 2
b11111010000000000000 3
b11111010000000000000 D
x=
16
1?
15
0A
b10 C
b10 J
b10 [
b11111111111111111100100000100000 *
b11111111111111111100100000100000 O
b1100 .
b1100 R
b11111010000000000000 B
b11111010000000000000 G
b11111010000000000000 K
b0 I
b100000 \
b1100100000100000 N
b0 T
b0 ,
b0 F
b0 Y
b11111010000000000000 +
b11111010000000000000 L
b11111010000000000000 X
b11100100000100000 /
b11100100000100000 P
b11111111111111110010000010001100 1
b1100 -
b1000 $
b1000 7
b1000 Q
b1000 S
1!
#30000
0!
#35000
b11111010000000000001 )
b11111010000000000001 W
b1 3
b1 D
b100 2
b11111010000000000001 B
b11111010000000000001 G
b11111010000000000001 K
b11001 (
b11001 V
1A
0=
15
b0 C
b0 J
b0 [
06
b1 *
b1 O
b11111010000000000000 ,
b11111010000000000000 F
b11111010000000000000 Y
b10000 .
b10000 R
b1000 I
b1 \
b1 N
b11001 U
b11001 T
b100011001110010000000000000001 /
b100011001110010000000000000001 P
b10100 1
b10000 -
b1100 $
b1100 7
b1100 Q
b1100 S
1!
#40000
0!
#45000
b10100 )
b10100 W
b1010000 2
b10100 3
b10100 D
b10000 (
b10000 V
b10100 *
b10100 O
b10100 .
b10100 R
b10100 B
b10100 G
b10100 K
b10100 \
b10100 N
b10000 U
b0 T
b0 ,
b0 F
b0 Y
b0 +
b0 L
b0 X
b100000000100000000000000010100 /
b100000000100000000000000010100 P
b1100100 1
b10100 -
b10000 $
b10000 7
b10000 Q
b10000 S
1!
#50000
0!
#55000
b1111 )
b1111 W
b1111 B
b1111 G
b1111 K
b111100 2
b1111 3
b1111 D
b10001 (
b10001 V
b1111 *
b1111 O
b11000 .
b11000 R
b1111 \
b1111 N
b10001 U
b100000000100010000000000001111 /
b100000000100010000000000001111 P
b0 +
b0 L
b0 X
b1010100 1
b11000 -
b10100 $
b10100 7
b10100 Q
b10100 S
1!
#60000
0!
#65000
b100011 )
b100011 W
b1000 (
b1000 V
b10000000010000000 2
b100011 B
b100011 G
b100011 K
x=
b10 C
b10 J
b10 [
16
15
0A
b100000000100000 *
b100000000100000 O
b10100 ,
b10100 F
b10100 Y
b11100 .
b11100 R
b0 I
b100000 \
b100000000100000 N
b10000 T
b1111 +
b1111 L
b1111 X
b10000100010100000000100000 /
b10000100010100000000100000 P
b10000000010011100 1
b11100 -
b11000 $
b11000 7
b11000 Q
b11000 S
1!
#70000
0!
#75000
b101 )
b101 W
b101 B
b101 G
b101 K
b10010000010001000 2
b1001 (
b1001 V
b1 4
b1 E
b1 ]
b100100000100010 *
b100100000100010 O
b100000 .
b100000 R
b100010 \
b100100000100010 N
b10000100010100100000100010 /
b10000100010100100000100010 P
b10010000010101000 1
b100000 -
b11100 $
b11100 7
b11100 Q
b11100 S
1!
#80000
0!
#85000
b101000 )
b101000 W
b101000 B
b101000 G
b101000 K
b1010000 2
b10100 3
b10100 D
b1010 (
b1010 V
1A
0=
15
b0 C
b0 J
b0 [
06
b0 4
b0 E
b0 ]
b10100 *
b10100 O
b0 +
b0 L
b0 X
b100100 .
b100100 R
b1000 I
b10100 \
b10100 N
b1010 U
b100010000010100000000000010100 /
b100010000010100000000000010100 P
b1110100 1
b100100 -
b100000 $
b100000 7
b100000 Q
b100000 S
1!
#90000
0!
#95000
b100 )
b100 W
b100 B
b100 G
b100 K
b10 4
b10 E
b10 ]
b10110000010010000 2
b1111 3
b1111 D
b1011 (
b1011 V
x=
b10 C
b10 J
b10 [
16
15
0A
b101100000100100 *
b101100000100100 O
b101000 .
b101000 R
b0 I
b100100 \
b101100000100100 N
b10001 U
b10000100010101100000100100 /
b10000100010101100000100100 P
b1111 +
b1111 L
b1111 X
b10110000010111000 1
b101000 -
b100100 $
b100100 7
b100100 Q
b100100 S
1!
#100000
0!
#105000
b11111 )
b11111 W
b11111 B
b11111 G
b11111 K
b11000000010010100 2
b1100 (
b1100 V
b11 4
b11 E
b11 ]
b110000000100101 *
b110000000100101 O
b101100 .
b101100 R
b100101 \
b110000000100101 N
b10000100010110000000100101 /
b10000100010110000000100101 P
b11000000011000000 1
b101100 -
b101000 $
b101000 7
b101000 Q
b101000 S
1!
#110000
0!
#115000
b11011 )
b11011 W
b11011 B
b11011 G
b11011 K
b11010000010011000 2
b1101 (
b1101 V
b100 4
b100 E
b100 ]
b110100000100110 *
b110100000100110 O
b110000 .
b110000 R
b100110 \
b110100000100110 N
b10000100010110100000100110 /
b10000100010110100000100110 P
b11010000011001000 1
b110000 -
b101100 $
b101100 7
b101100 Q
b101100 S
1!
#120000
0!
#125000
b11111111111111111111111111100000 )
b11111111111111111111111111100000 W
b11111111111111111111111111100000 B
b11111111111111111111111111100000 G
b11111111111111111111111111100000 K
b11100000010011100 2
b1110 (
b1110 V
b101 4
b101 E
b101 ]
b111000000100111 *
b111000000100111 O
b110100 .
b110100 R
b100111 \
b111000000100111 N
b10000100010111000000100111 /
b10000100010111000000100111 P
b11100000011010000 1
b110100 -
b110000 $
b110000 7
b110000 Q
b110000 S
1!
#130000
0!
#135000
b11111010000000000010 )
b11111010000000000010 W
b100 2
b1 3
b1 D
b11111010000000000010 B
b11111010000000000010 G
b11111010000000000010 K
b11001 (
b11001 V
1A
0=
15
b0 C
b0 J
b0 [
06
b0 4
b0 E
b0 ]
b1 *
b1 O
b11111010000000000001 +
b11111010000000000001 L
b11111010000000000001 X
b11111010000000000001 ,
b11111010000000000001 F
b11111010000000000001 Y
b111000 .
b111000 R
b1000 I
b1 \
b1 N
b11001 U
b11001 T
b100011001110010000000000000001 /
b100011001110010000000000000001 P
b111100 1
b111000 -
b110100 $
b110100 7
b110100 Q
b110100 S
1!
#140000
0!
#145000
b101 )
b101 W
b10100 2
b101 3
b101 D
b10000 (
b10000 V
b101 *
b101 O
b111100 .
b111100 R
b101 B
b101 G
b101 K
b101 \
b101 N
b10000 U
b0 T
b0 ,
b0 F
b0 Y
b10100 +
b10100 L
b10100 X
b100000000100000000000000000101 /
b100000000100000000000000000101 P
b1010000 1
b111100 -
b111000 $
b111000 7
b111000 Q
b111000 S
1!
#150000
0!
#155000
b10100 )
b10100 W
b10100 B
b10100 G
b10100 K
b1010000 2
b10100 3
b10100 D
b10001 (
b10001 V
b10100 *
b10100 O
b1000000 .
b1000000 R
b10100 \
b10100 N
b10001 U
b100000000100010000000000010100 /
b100000000100010000000000010100 P
b1111 +
b1111 L
b1111 X
b10010000 1
b1000000 -
b111100 $
b111100 7
b111100 Q
b111100 S
1!
#160000
0!
#165000
b101 )
b101 W
b101 B
b101 G
b101 K
b1000 4
b1000 E
b1000 ]
b11111111111111100000001000000000 2
b101 3
b101 D
b10000 (
b10000 V
x=
b10 C
b10 J
b10 [
16
15
0A
b11111111111111111000000010000000 *
b11111111111111111000000010000000 O
b1000100 .
b1000100 R
b0 I
b0 \
b1000000010000000 N
b10000 U
b101 +
b101 L
b101 X
b100001000000010000000 /
b100001000000010000000 P
b11111111111111100000001001000100 1
b1000100 -
b1000000 $
b1000000 7
b1000000 Q
b1000000 S
1!
#170000
0!
#175000
b11111111111111111111111111110001 )
b11111111111111111111111111110001 W
b11111111111111111111111111111000 2
b10100 3
b10100 D
b11111111111111111111111111110001 B
b11111111111111111111111111110001 G
b11111111111111111111111111110001 K
b10001 (
b10001 V
1@
0=
05
b1 C
b1 J
b1 [
06
b1 4
b1 E
b1 ]
b11111111111111111111111111111110 *
b11111111111111111111111111111110 O
b10100 +
b10100 L
b10100 X
b101 ,
b101 F
b101 Y
b1001000 .
b1001000 R
b100 I
b111110 \
b1111111111111110 N
b10001 U
b10000 T
b10010000100011111111111111110 /
b10010000100011111111111111110 P
b1000000 1
b1001000 -
b1000100 $
b1000100 7
b1000100 Q
b1000100 S
1!
#180000
0!
#185000
b11111010000000000011 )
b11111010000000000011 W
b0 4
b0 E
b0 ]
b100 2
b1 3
b1 D
b11111010000000000011 B
b11111010000000000011 G
b11111010000000000011 K
b11001 (
b11001 V
15
1A
b0 C
b0 J
b0 [
0@
b1 *
b1 O
b11111010000000000010 +
b11111010000000000010 L
b11111010000000000010 X
b11111010000000000010 ,
b11111010000000000010 F
b11111010000000000010 Y
b1001100 .
b1001100 R
b1000 I
b1 \
b1 N
b11001 U
b11001 T
b100011001110010000000000000001 /
b100011001110010000000000000001 P
b1010000 1
b1001100 -
b1001000 $
b1001000 7
b1001000 Q
b1001000 S
1!
#190000
0!
#195000
b101 )
b101 W
b10100 2
b101 3
b101 D
b10000 (
b10000 V
b101 *
b101 O
b1010000 .
b1010000 R
b101 \
b101 N
b10000 U
b0 T
b101 B
b101 G
b101 K
b100000000100000000000000000101 /
b100000000100000000000000000101 P
b0 ,
b0 F
b0 Y
b101 +
b101 L
b101 X
b1100100 1
b1010000 -
b1001100 $
b1001100 7
b1001100 Q
b1001100 S
1!
#200000
0!
#205000
b1010000 )
b1010000 W
b1010000 B
b1010000 G
b1010000 K
b101000000 2
b1010000 3
b1010000 D
b10001 (
b10001 V
b1010000 *
b1010000 O
b10100 +
b10100 L
b10100 X
b1010100 .
b1010100 R
b10000 \
b1010000 N
b10001 U
b100000000100010000000001010000 /
b100000000100010000000001010000 P
b110010100 1
b1010100 -
b1010000 $
b1010000 7
b1010000 Q
b1010000 S
1!
#210000
0!
#215000
b10 )
b10 W
b10 B
b10 G
b10 K
b1000 2
b10 3
b10 D
b1000 (
b1000 V
b10 *
b10 O
b1011000 .
b1011000 R
b10 \
b10 N
b1000 U
b100000000010000000000000000010 /
b100000000010000000000000000010 P
b100011 +
b100011 L
b100011 X
b1100000 1
b1011000 -
b1010100 $
b1010100 7
b1010100 Q
b1010100 S
1!
#220000
0!
#225000
b10100 )
b10100 W
b1011 4
b1011 E
b1011 ]
b11111111111111100000000000010000 2
b101 3
b101 D
b10100 B
b10100 G
b10100 K
b10000 (
b10000 V
x=
b10 C
b10 J
b10 [
16
15
0A
b11111111111111111000000000000100 *
b11111111111111111000000000000100 O
b10 ,
b10 F
b10 Y
b1011100 .
b1011100 R
b0 I
b100 \
b1000000000000100 N
b10000 U
b1000 T
b101 +
b101 L
b101 X
b1000100001000000000000100 /
b1000100001000000000000100 P
b11111111111111100000000001101100 1
b1011100 -
b1011000 $
b1011000 7
b1011000 Q
b1011000 S
1!
#230000
0!
#235000
b11111111111111111111111111000100 )
b11111111111111111111111111000100 W
1%
b11111111111111111111111111111000 2
b10001 (
b10001 V
1@
0=
05
b1 C
b1 J
b1 [
06
b1 4
b1 E
b1 ]
b11111111111111111111111111111110 *
b11111111111111111111111111111110 O
b10100 ,
b10100 F
b10100 Y
b1011000 .
b1011000 R
b11111111111111111111111111000100 B
b11111111111111111111111111000100 G
b11111111111111111111111111000100 K
b101 I
b111110 \
b1111111111111110 N
b10001 U
b10000 T
b1010000 3
b1010000 D
b10110000100011111111111111110 /
b10110000100011111111111111110 P
b1010000 +
b1010000 L
b1010000 X
b1011000 1
b1100000 -
b1011100 $
b1011100 7
b1011100 Q
b1011100 S
1!
#240000
0!
#245000
b1010000 )
b1010000 W
b1011 4
b1011 E
b1011 ]
0%
b11111111111111100000000000010000 2
b10100 3
b10100 D
b1010000 B
b1010000 G
b1010000 K
b10000 (
b10000 V
x=
15
16
b10 C
b10 J
b10 [
0@
b11111111111111111000000000000100 *
b11111111111111111000000000000100 O
b10100 +
b10100 L
b10100 X
b10 ,
b10 F
b10 Y
b1011100 .
b1011100 R
b0 I
b100 \
b1000000000000100 N
b10000 U
b1000 T
b1000100001000000000000100 /
b1000100001000000000000100 P
b11111111111111100000000001101100 1
b1011100 -
b1011000 $
b1011000 7
b1011000 Q
b1011000 S
1!
#250000
0!
#255000
b0 )
b0 W
1'
0%
b11111111111111111111111111111000 2
b10001 (
b10001 V
1@
0=
05
b1 C
b1 J
b1 [
06
b1 4
b1 E
b1 ]
b11111111111111111111111111111110 *
b11111111111111111111111111111110 O
b1010000 ,
b1010000 F
b1010000 Y
b1100000 .
b1100000 R
b0 B
b0 G
b0 K
b101 I
b111110 \
b1111111111111110 N
b10001 U
b10000 T
b1010000 3
b1010000 D
b10110000100011111111111111110 /
b10110000100011111111111111110 P
b1010000 +
b1010000 L
b1010000 X
b1011000 1
b1100000 -
b1011100 $
b1011100 7
b1011100 Q
b1011100 S
1!
#260000
0!
#265000
b11111010000000000100 )
b11111010000000000100 W
b0 4
b0 E
b0 ]
b100 2
b1 3
b1 D
0'
b11111010000000000100 B
b11111010000000000100 G
b11111010000000000100 K
b11001 (
b11001 V
15
1A
b0 C
b0 J
b0 [
0@
b1 *
b1 O
b11111010000000000011 +
b11111010000000000011 L
b11111010000000000011 X
b11111010000000000011 ,
b11111010000000000011 F
b11111010000000000011 Y
b1100100 .
b1100100 R
b1000 I
b1 \
b1 N
b11001 U
b11001 T
b100011001110010000000000000001 /
b100011001110010000000000000001 P
b1101000 1
b1100100 -
b1100000 $
b1100000 7
b1100000 Q
b1100000 S
1!
#270000
0!
#275000
b11111111111111111111111111111110 )
b11111111111111111111111111111110 W
b11111111111111111111111111111000 2
b11111111111111111111111111111110 3
b11111111111111111111111111111110 D
b10000 (
b10000 V
b11111111111111111111111111111110 *
b11111111111111111111111111111110 O
b1101000 .
b1101000 R
b111110 \
b1111111111111110 N
b10000 U
b0 T
b11111111111111111111111111111110 B
b11111111111111111111111111111110 G
b11111111111111111111111111111110 K
b100000000100001111111111111110 /
b100000000100001111111111111110 P
b0 ,
b0 F
b0 Y
b1010000 +
b1010000 L
b1010000 X
b1100000 1
b1101000 -
b1100100 $
b1100100 7
b1100100 Q
b1100100 S
1!
#280000
0!
#285000
b11111111111111111111111111111000 )
b11111111111111111111111111111000 W
b11111111111111111111111111111000 B
b11111111111111111111111111111000 G
b11111111111111111111111111111000 K
b11111111111111111111111111100000 2
b11111111111111111111111111111000 3
b11111111111111111111111111111000 D
b10001 (
b10001 V
b11111111111111111111111111111000 *
b11111111111111111111111111111000 O
b1101100 .
b1101100 R
b111000 \
b1111111111111000 N
b10001 U
b1010000 +
b1010000 L
b1010000 X
b100000000100011111111111111000 /
b100000000100011111111111111000 P
b1001100 1
b1101100 -
b1101000 $
b1101000 7
b1101000 Q
b1101000 S
1!
#290000
0!
#295000
b1010 4
b1010 E
b1010 ]
b11111111111111100010000100001100 2
x=
b10 C
b10 J
b10 [
16
15
0A
b11111111111111111000100001000011 *
b11111111111111111000100001000011 O
b1110000 .
b1110000 R
b0 I
b11 \
b1000100001000011 N
b100011000100001000011 /
b100011000100001000011 P
b11111111111111111111111111111000 +
b11111111111111111111111111111000 L
b11111111111111111111111111111000 X
b11111111111111100010000101111100 1
b1110000 -
b1101100 $
b1101100 7
b1101100 Q
b1101100 S
1!
#300000
0!
#305000
b0 )
b0 W
b10000000010101000 2
1'
b0 B
b0 G
b0 K
b1000 (
b1000 V
b110 4
b110 E
b110 ]
b100000000101010 *
b100000000101010 O
b11111111111111111111111111111110 ,
b11111111111111111111111111111110 F
b11111111111111111111111111111110 Y
b1110100 .
b1110100 R
b101010 \
b100000000101010 N
b10000 T
b10000100010100000000101010 /
b10000100010100000000101010 P
b10000000100011100 1
b1110100 -
b1110000 $
b1110000 7
b1110000 Q
b1110000 S
1!
#310000
0!
#315000
b0 )
b0 W
1%
b11111111111111111111111111110100 2
b0 3
b0 D
1'
b0 B
b0 G
b0 K
b0 (
b0 V
1@
0=
05
b1 C
b1 J
b1 [
06
b1 4
b1 E
b1 ]
b11111111111111111111111111111101 *
b11111111111111111111111111111101 O
b0 +
b0 L
b0 X
b0 ,
b0 F
b0 Y
b1101100 .
b1101100 R
b100 I
b111101 \
b1111111111111101 N
b0 U
b1000 T
b10001000000001111111111111101 /
b10001000000001111111111111101 P
b1101100 1
b1111000 -
b1110100 $
b1110100 7
b1110100 Q
b1110100 S
1!
#320000
0!
#325000
b11111111111111111111111111111000 )
b11111111111111111111111111111000 W
0'
b11111111111111111111111111111000 B
b11111111111111111111111111111000 G
b11111111111111111111111111111000 K
b1010 4
b1010 E
b1010 ]
0%
b11111111111111100010000100001100 2
b11111111111111111111111111111000 3
b11111111111111111111111111111000 D
b10001 (
b10001 V
x=
15
16
b10 C
b10 J
b10 [
0@
b11111111111111111000100001000011 *
b11111111111111111000100001000011 O
b11111111111111111111111111111000 +
b11111111111111111111111111111000 L
b11111111111111111111111111111000 X
b1110000 .
b1110000 R
b0 I
b11 \
b1000100001000011 N
b10001 U
b0 T
b100011000100001000011 /
b100011000100001000011 P
b11111111111111100010000101111100 1
b1110000 -
b1101100 $
b1101100 7
b1101100 Q
b1101100 S
1!
#330000
0!
#335000
b0 )
b0 W
b10000000010101000 2
1'
b0 B
b0 G
b0 K
b1000 (
b1000 V
b110 4
b110 E
b110 ]
b100000000101010 *
b100000000101010 O
b11111111111111111111111111111110 ,
b11111111111111111111111111111110 F
b11111111111111111111111111111110 Y
b1110100 .
b1110100 R
b101010 \
b100000000101010 N
b10000 T
b10000100010100000000101010 /
b10000100010100000000101010 P
b10000000100011100 1
b1110100 -
b1110000 $
b1110000 7
b1110000 Q
b1110000 S
1!
#340000
0!
#345000
b0 )
b0 W
1%
b11111111111111111111111111110100 2
b0 3
b0 D
1'
b0 B
b0 G
b0 K
b0 (
b0 V
1@
0=
05
b1 C
b1 J
b1 [
06
b1 4
b1 E
b1 ]
b11111111111111111111111111111101 *
b11111111111111111111111111111101 O
b0 +
b0 L
b0 X
b0 ,
b0 F
b0 Y
b1101100 .
b1101100 R
b100 I
b111101 \
b1111111111111101 N
b0 U
b1000 T
b10001000000001111111111111101 /
b10001000000001111111111111101 P
b1101100 1
b1111000 -
b1110100 $
b1110100 7
b1110100 Q
b1110100 S
1!
#350000
0!
#355000
b11111111111111111111111111111000 )
b11111111111111111111111111111000 W
0'
b11111111111111111111111111111000 B
b11111111111111111111111111111000 G
b11111111111111111111111111111000 K
b1010 4
b1010 E
b1010 ]
0%
b11111111111111100010000100001100 2
b11111111111111111111111111111000 3
b11111111111111111111111111111000 D
b10001 (
b10001 V
x=
15
16
b10 C
b10 J
b10 [
0@
b11111111111111111000100001000011 *
b11111111111111111000100001000011 O
b11111111111111111111111111111000 +
b11111111111111111111111111111000 L
b11111111111111111111111111111000 X
b1110000 .
b1110000 R
b0 I
b11 \
b1000100001000011 N
b10001 U
b0 T
b100011000100001000011 /
b100011000100001000011 P
b11111111111111100010000101111100 1
b1110000 -
b1101100 $
b1101100 7
b1101100 Q
b1101100 S
1!
#360000
0!
#365000
b0 )
b0 W
b10000000010101000 2
1'
b0 B
b0 G
b0 K
b1000 (
b1000 V
b110 4
b110 E
b110 ]
b100000000101010 *
b100000000101010 O
b11111111111111111111111111111110 ,
b11111111111111111111111111111110 F
b11111111111111111111111111111110 Y
b1110100 .
b1110100 R
b101010 \
b100000000101010 N
b10000 T
b10000100010100000000101010 /
b10000100010100000000101010 P
b10000000100011100 1
b1110100 -
b1110000 $
b1110000 7
b1110000 Q
b1110000 S
1!
#370000
0!
#375000
b0 )
b0 W
1%
b11111111111111111111111111110100 2
b0 3
b0 D
1'
b0 B
b0 G
b0 K
b0 (
b0 V
1@
0=
05
b1 C
b1 J
b1 [
06
b1 4
b1 E
b1 ]
b11111111111111111111111111111101 *
b11111111111111111111111111111101 O
b0 +
b0 L
b0 X
b0 ,
b0 F
b0 Y
b1101100 .
b1101100 R
b100 I
b111101 \
b1111111111111101 N
b0 U
b1000 T
b10001000000001111111111111101 /
b10001000000001111111111111101 P
b1101100 1
b1111000 -
b1110100 $
b1110100 7
b1110100 Q
b1110100 S
1!
#380000
0!
#385000
b11111111111111111111111111111000 )
b11111111111111111111111111111000 W
0'
b11111111111111111111111111111000 B
b11111111111111111111111111111000 G
b11111111111111111111111111111000 K
b1010 4
b1010 E
b1010 ]
0%
b11111111111111100010000100001100 2
b11111111111111111111111111111000 3
b11111111111111111111111111111000 D
b10001 (
b10001 V
x=
15
16
b10 C
b10 J
b10 [
0@
b11111111111111111000100001000011 *
b11111111111111111000100001000011 O
b11111111111111111111111111111000 +
b11111111111111111111111111111000 L
b11111111111111111111111111111000 X
b1110000 .
b1110000 R
b0 I
b11 \
b1000100001000011 N
b10001 U
b0 T
b100011000100001000011 /
b100011000100001000011 P
b11111111111111100010000101111100 1
b1110000 -
b1101100 $
b1101100 7
b1101100 Q
b1101100 S
1!
#390000
0!
#395000
b0 )
b0 W
b10000000010101000 2
1'
b0 B
b0 G
b0 K
b1000 (
b1000 V
b110 4
b110 E
b110 ]
b100000000101010 *
b100000000101010 O
b11111111111111111111111111111110 ,
b11111111111111111111111111111110 F
b11111111111111111111111111111110 Y
b1110100 .
b1110100 R
b101010 \
b100000000101010 N
b10000 T
b10000100010100000000101010 /
b10000100010100000000101010 P
b10000000100011100 1
b1110100 -
b1110000 $
b1110000 7
b1110000 Q
b1110000 S
1!
#400000
0!
#405000
b0 )
b0 W
1%
b11111111111111111111111111110100 2
b0 3
b0 D
1'
b0 B
b0 G
b0 K
b0 (
b0 V
1@
0=
05
b1 C
b1 J
b1 [
06
b1 4
b1 E
b1 ]
b11111111111111111111111111111101 *
b11111111111111111111111111111101 O
b0 +
b0 L
b0 X
b0 ,
b0 F
b0 Y
b1101100 .
b1101100 R
b100 I
b111101 \
b1111111111111101 N
b0 U
b1000 T
b10001000000001111111111111101 /
b10001000000001111111111111101 P
b1101100 1
b1111000 -
b1110100 $
b1110100 7
b1110100 Q
b1110100 S
1!
#410000
0!
#415000
b11111111111111111111111111111000 )
b11111111111111111111111111111000 W
0'
b11111111111111111111111111111000 B
b11111111111111111111111111111000 G
b11111111111111111111111111111000 K
b1010 4
b1010 E
b1010 ]
0%
b11111111111111100010000100001100 2
b11111111111111111111111111111000 3
b11111111111111111111111111111000 D
b10001 (
b10001 V
x=
15
16
b10 C
b10 J
b10 [
0@
b11111111111111111000100001000011 *
b11111111111111111000100001000011 O
b11111111111111111111111111111000 +
b11111111111111111111111111111000 L
b11111111111111111111111111111000 X
b1110000 .
b1110000 R
b0 I
b11 \
b1000100001000011 N
b10001 U
b0 T
b100011000100001000011 /
b100011000100001000011 P
b11111111111111100010000101111100 1
b1110000 -
b1101100 $
b1101100 7
b1101100 Q
b1101100 S
1!
#420000
0!
#425000
b0 )
b0 W
b10000000010101000 2
1'
b0 B
b0 G
b0 K
b1000 (
b1000 V
b110 4
b110 E
b110 ]
b100000000101010 *
b100000000101010 O
b11111111111111111111111111111110 ,
b11111111111111111111111111111110 F
b11111111111111111111111111111110 Y
b1110100 .
b1110100 R
b101010 \
b100000000101010 N
b10000 T
b10000100010100000000101010 /
b10000100010100000000101010 P
b10000000100011100 1
b1110100 -
b1110000 $
b1110000 7
b1110000 Q
b1110000 S
1!
#430000
0!
#435000
b0 )
b0 W
1%
b11111111111111111111111111110100 2
b0 3
b0 D
1'
b0 B
b0 G
b0 K
b0 (
b0 V
1@
0=
05
b1 C
b1 J
b1 [
06
b1 4
b1 E
b1 ]
b11111111111111111111111111111101 *
b11111111111111111111111111111101 O
b0 +
b0 L
b0 X
b0 ,
b0 F
b0 Y
b1101100 .
b1101100 R
b100 I
b111101 \
b1111111111111101 N
b0 U
b1000 T
b10001000000001111111111111101 /
b10001000000001111111111111101 P
b1101100 1
b1111000 -
b1110100 $
b1110100 7
b1110100 Q
b1110100 S
1!
#440000
0!
#445000
b11111111111111111111111111111000 )
b11111111111111111111111111111000 W
0'
b11111111111111111111111111111000 B
b11111111111111111111111111111000 G
b11111111111111111111111111111000 K
b1010 4
b1010 E
b1010 ]
0%
b11111111111111100010000100001100 2
b11111111111111111111111111111000 3
b11111111111111111111111111111000 D
b10001 (
b10001 V
x=
15
16
b10 C
b10 J
b10 [
0@
b11111111111111111000100001000011 *
b11111111111111111000100001000011 O
b11111111111111111111111111111000 +
b11111111111111111111111111111000 L
b11111111111111111111111111111000 X
b1110000 .
b1110000 R
b0 I
b11 \
b1000100001000011 N
b10001 U
b0 T
b100011000100001000011 /
b100011000100001000011 P
b11111111111111100010000101111100 1
b1110000 -
b1101100 $
b1101100 7
b1101100 Q
b1101100 S
1!
#450000
0!
#455000
b0 )
b0 W
b10000000010101000 2
1'
b0 B
b0 G
b0 K
b1000 (
b1000 V
b110 4
b110 E
b110 ]
b100000000101010 *
b100000000101010 O
b11111111111111111111111111111110 ,
b11111111111111111111111111111110 F
b11111111111111111111111111111110 Y
b1110100 .
b1110100 R
b101010 \
b100000000101010 N
b10000 T
b10000100010100000000101010 /
b10000100010100000000101010 P
b10000000100011100 1
b1110100 -
b1110000 $
b1110000 7
b1110000 Q
b1110000 S
1!
#460000
0!
